{
  "0" : {
    "name" : "Julia Gillard",
    "image" : "http://www.openaustralia.org/images/mpsL/10257.jpg",
    "word_count" : 1000,
    "party" : {
      "name" : "Australian Labor Party",
      "represents" : "Lalor"
    },
    "sentiment" : {
      "happiness" : 0.3,
      "sadness" : 0.2,
      "fear" : 0.6,
      "tyranny" : 0.8 
    }
  },
  "1" : {
    "name" : "Julia Gillard",
    "image" : "http://www.openaustralia.org/images/mpsL/10257.jpg",
    "word_count" : 1000,
    "party" : {
      "name" : "Australian Labor Party",
      "represents" : "Lalor"
    },
    "sentiment" : {
      "happiness" : 0.3,
      "sadness" : 0.2,
      "fear" : 0.6,
      "tyranny" : 0.8 
    }
  },
  "2" : {
    "name" : "Julia Gillard",
    "image" : "http://www.openaustralia.org/images/mpsL/10257.jpg",
    "word_count" : 1000,
    "party" : {
      "name" : "Australian Labor Party",
      "represents" : "Lalor"
    },
    "sentiment" : {
      "happiness" : 0.3,
      "sadness" : 0.2,
      "fear" : 0.6,
      "tyranny" : 0.8 
    }
  },
  "3" : {
    "name" : "Julia Gillard",
    "image" : "http://www.openaustralia.org/images/mpsL/10257.jpg",
    "word_count" : 1000,
    "party" : {
      "name" : "Australian Labor Party",
      "represents" : "Lalor"
    },
    "sentiment" : {
      "happiness" : 0.3,
      "sadness" : 0.2,
      "fear" : 0.6,
      "tyranny" : 0.8 
    }
  }
}